-54.59472,295.4113,2443.916,0.5251232,-0.4689639,0.5228879,-0.4805274,-56.14843,120.4037,2429.208,0.513511,-0.4813038,0.5115522,-0.4929173,-57.45519,-19.8174,2422.069,0.5244502,-0.4664053,0.5184857,-0.4884574,-60.65265,-232.7693,2404.14,0.5619321,-0.4233241,0.5542184,-0.4448268,-26.9975,-198.5359,2409.012,0.7534322,-0.6350598,-0.07812165,0.1514467,105.5586,-152.4564,2398.508,0.6735882,-0.3809696,-0.3853717,0.502623,159.3468,111.6319,2435.559,0.5438064,-0.4576473,-0.2901863,0.6408007,161.7061,331.4106,2373.702,0.5438064,-0.4576473,-0.2901863,0.6408007,149.5283,424.8988,2383.593,-0.01928139,0.5785298,0.8110064,0.08485374,114.4394,524.3704,2397.364,-0.01928139,0.5785298,0.8110064,0.08485374,88.71011,449.7807,2378.64,-0.4262565,0.2641239,0.7320543,-0.4611295,-93.20172,-196.8043,2407.255,0.6299864,0.7492272,-0.1945944,-0.06251955,-211.8502,-148.8549,2387.641,-0.4078767437921234,-0.640447806195552,0.5567130882300954,0.33694763214207235,-254.28098949185846,124.99890222333386,2381.391652029153,0.36293157661158504,0.588891112031789,-0.6216958156526521,-0.3673992945940096,-244.34404528980693,355.9656534114027,2377.102536357593,0.36293157661158504,0.588891112031789,-0.6216958156526521,-0.3673992945940096,-240.2912,447.2582,2368.843,0.5807636,0.2240819,-0.184338,-0.7606053,-216.7654,548.2699,2382.097,0.5807636,0.2240819,-0.184338,-0.7606053,-189.7959,464.6123,2367.023,0.3018637,0.6045843,-0.5765763,-0.4592557,35.15681,294.514,2445.112,0.5675997,-0.3564619,0.4611746,-0.5814496,75.17123,684.2269,2488.068,0.6433619,-0.2885085,0.5064586,-0.4963346,77.31687,1034.841,2625.649,0.5810117,-0.3717939,0.5276809,-0.4957293,109.8402,1176.789,2512.486,0.765147,0.1085035,0.6320661,0.0571794,-135.5276,296.2205,2442.837,0.3848642,0.5737259,0.5639079,0.4524666,-153.4153,688.069,2476.351,0.3125561,0.652015,0.471208,0.5051218,-136.0481,1042.122,2614.944,0.388526,0.5969713,0.455056,0.5344127,-152.5176,1177.958,2514.599,-0.1011088,0.7481111,-0.09670246,0.6486568,-61.46147,-310.7054,2384.337,0.6140041,-0.3514581,0.5776055,-0.4072445,-52.32111,-293.3546,2227.367,0.6140041,-0.3514581,0.5776055,-0.4072445,-31.08628,-339.4514,2248.824,0.7221318,0.1599104,0.6569472,0.1462012,17.89521,-371.5591,2359.028,0.4072445,0.5776055,0.3514581,0.6140041,-81.69592,-331.6667,2243.599,0.7221318,0.1599104,0.6569472,0.1462012,-145.046,-363.0802,2351.473,0.6140041,-0.3514581,0.5776055,-0.4072445
-56.07125,295.1403,2446.146,0.5269772,-0.4646402,0.5212482,-0.4844635,-58.38591,120.3652,2431.331,0.5156788,-0.4765228,0.5104078,-0.4964729,-60.3498,-19.65986,2423.869,0.5286574,-0.4583422,0.5193701,-0.4906104,-64.84805,-232.1133,2403.57,0.5662984,-0.415216,0.5544534,-0.4466354,-31.0546,-198.227,2409.259,0.757133,-0.6323442,-0.07876901,0.1438254,101.9439,-153.6128,2400.458,0.6665639,-0.3856619,-0.3971515,0.4992275,152.5057,110.456,2439.69,0.5364217,-0.4654734,-0.2996646,0.6370145,154.5188,329.9299,2377.767,0.5364217,-0.4654734,-0.2996646,0.6370145,150.4179,424.308,2384.109,-0.002660124,0.5821205,0.810084,0.06994741,116.1799,524.4709,2393.219,-0.002660124,0.5821205,0.810084,0.06994741,87.15359,450.2289,2383.606,-0.4461105,0.2618343,0.72054,-0.4617903,-97.1344,-195.9886,2406.646,0.624058,0.7541137,-0.1947484,-0.06274717,-215.6152,-147.8809,2387.453,-0.4061361541268424,-0.6374392248571741,0.5602324156317968,0.3389163604783698,-255.12910531547232,126.40616716540552,2381.0821828106455,0.36101063687318125,0.5855508135596191,-0.6249402363328734,-0.369122291139807,-242.7349212441565,357.2524019431363,2376.7027287532164,0.36101063687318125,0.5855508135596191,-0.6249402363328734,-0.369122291139807,-241.0158,447.4684,2365.559,0.5735214,0.2270641,-0.1906212,-0.7636614,-216.0536,547.9851,2378.941,0.5735214,0.2270641,-0.1906212,-0.7636614,-189.8155,465.2912,2371.448,0.2785077,0.6232986,-0.5691937,-0.4582039,33.54503,293.7648,2448.371,0.5614037,-0.3669847,0.4675761,-0.5757782,73.02449,683.3294,2488.676,0.6361113,-0.2983698,0.5140735,-0.4920024,77.79296,1034.201,2624.261,0.5809599,-0.370988,0.5311656,-0.4926628,109.6379,1176.833,2512.135,0.7629598,0.1115431,0.6339826,0.05930103,-136.8822,296.3806,2444.139,0.3871864,0.5735155,0.5623824,0.4526509,-153.5279,687.852,2477.055,0.3170142,0.6495342,0.4725527,0.5042828,-136.5029,1042.758,2612.191,0.4089758,0.5804082,0.4685491,0.5256681,-151.6822,1172.162,2503.812,-0.08030727,0.7459031,-0.07557983,0.6568615,-65.95673,-309.7246,2382.922,0.6198279,-0.3500155,0.5815621,-0.3938121,-58.15391,-288.4,2226.565,0.6198279,-0.3500155,0.5815621,-0.3938121,-36.03754,-334.5884,2246.722,0.7167518,0.1637281,0.6587249,0.1598173,14.13904,-368.5196,2355.663,0.3938121,0.5815621,0.3500155,0.6198279,-86.74166,-327.5411,2242.01,0.7167518,0.1637281,0.6587249,0.1598173,-148.7685,-362.6146,2349.336,0.6198279,-0.3500155,0.5815621,-0.3938121
-56.47765,294.0731,2449.295,0.5345119,-0.4520572,0.5197061,-0.4897416,-60.09744,119.8644,2432.115,0.5216147,-0.4653997,0.5077924,-0.5034559,-63.26714,-19.815,2423.565,0.5380029,-0.4525811,0.5197046,-0.4854177,-65.75397,-231.4453,2398.95,0.5751974,-0.4094467,0.5543248,-0.4407102,-32.37059,-197.4674,2405.664,0.7633047,-0.625071,-0.08298157,0.1405928,100.4474,-152.8014,2398.778,0.6715477,-0.3805002,-0.3961436,0.4973063,152.3875,110.1063,2440.438,0.5422514,-0.4599625,-0.300241,0.6358092,154.9378,329.9342,2381.417,0.5422514,-0.4599625,-0.300241,0.6358092,149.2564,423.9482,2389.167,0.01388423,0.5550209,0.8267209,0.09105904,108.5855,521.5349,2397.451,0.01388423,0.5550209,0.8267209,0.09105904,88.41211,450.6315,2385.336,-0.4301093,0.2794653,0.7351668,-0.4432099,-98.3142,-195.7256,2402.42,0.6159273,0.7580811,-0.2068227,-0.0563121,-215.5209,-146.3,2380.557,-0.3981931799313041,-0.6424157166421187,0.5555389816859787,0.3465843018584294,-255.023950482823,128.06144625400543,2381.3551548107916,0.353786450097746,0.5899246683498237,-0.6198779761552644,-0.3775914830570717,-242.61937608372676,358.9431618335636,2382.9487271208204,0.353786450097746,0.5899246683498237,-0.6198779761552644,-0.3775914830570717,-242.4338,447.3082,2371.707,0.5749756,0.2140836,-0.1748113,-0.7700729,-216.6723,547.4168,2385.121,0.5749756,0.2140836,-0.1748113,-0.7700729,-193.8489,466.5998,2365.62,0.3393764,0.6014105,-0.5671728,-0.4488251,32.86343,291.7657,2453.867,0.5583856,-0.3688669,0.4608057,-0.5829243,73.83688,681.1053,2487.095,0.6387699,-0.2964062,0.5104313,-0.4935345,76.92825,1031.474,2622.092,0.5993648,-0.351069,0.5359067,-0.4799131,110.1146,1180.027,2518.968,0.7669695,0.1291398,0.6232851,0.08121882,-137.0404,296.1536,2445.171,0.3867775,0.5739066,0.5591447,0.4564993,-153.5514,686.6345,2481.062,0.3165615,0.6489733,0.46995,0.50771,-137.3284,1040.048,2618.208,0.4063964,0.5825968,0.4577432,0.5346906,-150.3348,1171.899,2513.036,-0.08854601,0.7398738,-0.08474457,0.6614867,-65.99471,-308.4819,2376.759,0.6065597,-0.3605101,0.587549,-0.3961111,-62.71701,-290.3937,2220.131,0.6065597,-0.3605101,0.587549,-0.3961111,-40.28679,-336.2036,2240.524,0.7089953,0.1605408,0.6703791,0.1488097,12.81941,-368.15,2348.407,0.3961111,0.587549,0.3605101,0.6065598,-90.97786,-328.9832,2237.172,0.7089953,0.1605408,0.6703791,0.1488097,-149.8695,-361.4769,2346.765,0.6065597,-0.3605101,0.587549,-0.3961111
-61.66215,290.7188,2450.788,0.5312652,-0.4610574,0.5209142,-0.4835613,-63.56184,116.5589,2434.539,0.5201318,-0.4727837,0.5102953,-0.4955172,-65.22299,-23.00535,2425.833,0.5416837,-0.4431115,0.5254232,-0.4839022,-69.63275,-233.8502,2396.862,0.5787448,-0.3995491,0.5592655,-0.4389043,-35.98912,-200.3805,2404.45,0.7666764,-0.6183308,-0.09161753,0.1465622,95.80096,-153.0005,2398.736,0.6825213,-0.3678611,-0.3888203,0.4976561,150.6187,108.574,2443.34,0.5420989,-0.450889,-0.2884477,0.6477853,149.3325,327.4467,2381.615,0.5420989,-0.450889,-0.2884477,0.6477853,151.2123,421.3777,2390.976,0.056774,0.5369923,0.8331321,0.1196113,107.0501,517.6151,2394.564,0.056774,0.5369923,0.8331321,0.1196113,87.7229,449.1657,2387.278,-0.423041,0.2831623,0.7554219,-0.4125449,-101.8316,-197.9236,2400.891,0.6065771,0.7622452,-0.2154607,-0.06799309,-217.613,-144.9328,2380.552,-0.39880195062185986,-0.6419951308233262,0.5559498420486555,0.3460043775812888,-257.08554957854824,129.4340984398924,2380.7846142359435,0.3543361733269714,0.5895477568717838,-0.6203151049910421,-0.3769462682656493,-244.6554090470312,360.3172091372128,2381.90725789518,0.3543361733269714,0.5895477568717838,-0.6203151049910421,-0.3769462682656493,-246.3178,443.8489,2365.438,0.5602059,0.2009871,-0.1796569,-0.7832605,-215.9564,542.7593,2377.264,0.5602059,0.2009871,-0.1796569,-0.7832605,-195.1439,462.4647,2376.723,0.278555,0.6304113,-0.5475088,-0.4745764,27.68677,289.4761,2453.662,0.5615625,-0.3578943,0.4554815,-0.5908433,72.08891,677.9297,2488.457,0.6384282,-0.2909898,0.5008677,-0.5068195,77.89184,1030.044,2617.72,0.5939441,-0.3542368,0.5413631,-0.4781973,109.8634,1178.286,2514.074,0.7619492,0.1307233,0.629417,0.07860623,-142.232,291.8395,2448.196,0.386992,0.5764537,0.5643671,0.4465737,-156.2994,682.496,2478.798,0.3161589,0.6542011,0.4720554,0.4992276,-135.1198,1036.297,2613.259,0.3871624,0.6029967,0.4510068,0.5320649,-150.8009,1172.603,2514.589,-0.1004653,0.7495221,-0.1038245,0.6460214,-70.50018,-310.3347,2373.105,0.604669,-0.3795651,0.583685,-0.3868042,-70.84319,-294.8136,2216.316,0.604669,-0.3795651,0.583685,-0.3868042,-46.45644,-339.4212,2236.988,0.7010774,0.1443346,0.6811207,0.1540536,9.731302,-367.6417,2344.212,0.3868042,0.583685,0.3795651,0.604669,-97.37662,-334.0322,2234.517,0.7010774,0.1443346,0.6811207,0.1540536,-152.9405,-366.6641,2345.654,0.604669,-0.3795651,0.583685,-0.3868042
-64.64356,290.9911,2457.016,0.5340105,-0.456837,0.5266868,-0.4782611,-66.87134,116.6866,2437.571,0.5193367,-0.4725208,0.5126628,-0.4941562,-68.83841,-23.22274,2428.394,0.538407,-0.4400983,0.5322065,-0.4828951,-75.90052,-234.335,2397.708,0.5753979,-0.3960014,0.5657854,-0.4381632,-41.72393,-201.2177,2405.284,0.7701651,-0.6151392,-0.08582206,0.1452034,90.82331,-154.9441,2398.757,0.699102,-0.3491389,-0.3709696,0.5017368,150.9431,106.03,2444.492,0.5594131,-0.4274765,-0.2770925,0.6538659,148.9725,326.8677,2387.711,0.5594131,-0.4274765,-0.2770925,0.6538659,150.1042,421.0544,2397.203,0.06988733,0.5436934,0.8261004,0.1306575,107.714,518.4235,2400.03,0.06988733,0.5436934,0.8261004,0.1306575,87.72307,449.1946,2391.623,-0.4109379,0.2940425,0.7638285,-0.4015408,-107.7411,-197.9848,2402.318,0.6043093,0.759756,-0.2275571,-0.07615089,-222.1461,-141.3778,2381.719,-0.4171128789183386,-0.6368883705937897,0.5594107246231527,0.32779519645571703,-266.28057737274656,131.93881159631977,2368.098832171336,0.3715377863033183,0.586160170787416,-0.6249282992505001,-0.35754796647047854,-257.78274821733,362.7662347448204,2357.6457393295786,0.3715377863033183,0.586160170787416,-0.6249282992505001,-0.35754796647047854,-250.318,432.873,2314.935,0.547358,0.1927578,-0.347403,-0.7365831,-216.2259,531.0577,2304.875,0.547358,0.1927578,-0.347403,-0.7365831,-200.6277,454.1296,2330.985,-0.3017423,-0.6194273,0.6452898,0.329943,24.95618,289.5679,2459.509,0.5542111,-0.3648499,0.455025,-0.5938745,71.9781,679.3387,2487.458,0.6381957,-0.2913605,0.5052378,-0.5025437,77.8576,1031.361,2619.877,0.5884142,-0.3602618,0.5383649,-0.4838836,109.9779,1177.776,2512.852,0.7620462,0.1242911,0.6315356,0.07071105,-145.4396,292.2745,2454.769,0.3965323,0.5727177,0.5595728,0.4490376,-157.0431,684.2895,2482.513,0.3261702,0.648911,0.4690919,0.5024742,-136.1581,1040.292,2614.074,0.40393,0.5900201,0.4648653,0.5221274,-151.6292,1171.381,2507.81,-0.08145151,0.7500973,-0.08495796,0.6507701,-77.84406,-310.8181,2373.287,0.620707,-0.3481624,0.5763991,-0.4015842,-67.64869,-291.1572,2216.865,0.620707,-0.3481624,0.5763991,-0.4015842,-46.17424,-337.2948,2237.803,0.722869,0.1613878,0.6537637,0.1549432,2.178541,-370.4755,2347.781,0.4015842,0.5763991,0.3481624,0.620707,-96.74625,-329.9213,2232.293,0.722869,0.1613878,0.6537637,0.1549432,-160.5568,-363.4293,2339.056,0.620707,-0.3481624,0.5763991,-0.4015842
-75.63636,289.2397,2460.144,0.5345964,-0.4640935,0.5274268,-0.4697286,-75.25553,114.4294,2440.218,0.5239586,-0.4757718,0.5169167,-0.4815658,-75.00484,-25.73779,2428.486,0.5311491,-0.4494646,0.5405594,-0.4729245,-81.81245,-237.4791,2397.478,0.5673639,-0.4046678,0.5748625,-0.4288068,-47.4982,-204.0572,2403.966,0.7743744,-0.6108767,-0.07438366,0.1471092,85.81872,-159.1254,2394.869,0.7006248,-0.3461746,-0.376755,0.4973367,146.1628,101.8844,2444.904,0.5567707,-0.4282093,-0.280032,0.6543893,143.1237,323.4169,2388.04,0.5567707,-0.4282093,-0.280032,0.6543893,140.3783,417.7149,2398.921,0.07151815,0.5796794,0.7967823,0.1549029,106.5218,518.5139,2405.914,0.07151815,0.5796794,0.7967823,0.1549029,81.94324,447.7888,2385.743,-0.3817891,0.3252463,0.769999,-0.3944027,-113.802,-201.2307,2403.286,0.6070588,0.7653818,-0.1963587,-0.08434139,-231.6505,-148.9664,2389.111,-0.40212610237239177,-0.6510957441562935,0.550832616278006,0.3330951194128762,-279.1229906862078,124.11804467226798,2386.545859608732,0.4633382247418695,0.5156589276345498,-0.6798172755347655,-0.23929486356444793,-270.145317820716,337.5011129716537,2297.946496852841,0.4633382247418695,0.5156589276345498,-0.6798172755347655,-0.23929486356444793,-261.4094,360.0852,2215.063,0.5079889,0.173484,-0.5564486,-0.6342047,-217.0293,447.7986,2178.895,0.5079889,0.173484,-0.5564486,-0.6342047,-196.287,398.2343,2232.249,-0.3334935,-0.55286,0.7623143,0.04477719,14.27922,289.3036,2461.302,0.5471953,-0.3645211,0.4584536,-0.5979313,67.73753,679.612,2487.284,0.6345445,-0.287831,0.5100999,-0.5042862,78.68465,1031.884,2622.01,0.5802234,-0.3631758,0.5464965,-0.4824788,109.8308,1178.472,2513.957,0.7552896,0.1279276,0.6393962,0.06591392,-156.7172,289.1821,2459.1,0.4061083,0.5742891,0.548553,0.4520593,-160.8725,682.4713,2488.159,0.3389333,0.6454399,0.4627435,0.504381,-136.8757,1040.592,2616.811,0.4133152,0.5873511,0.4683624,0.5146123,-151.2074,1169.644,2507.11,-0.06947051,0.7506732,-0.08066569,0.6520404,-84.12324,-314.1582,2372.886,0.6231731,-0.3164293,0.5897033,-0.4046948,-70.6022,-287.4653,2217.266,0.6231731,-0.3164293,0.5897033,-0.4046948,-51.59743,-335.6788,2236.273,0.7268123,0.1932339,0.6407325,0.1544875,-6.3996,-376.494,2345.459,0.4046948,0.5897033,0.3164293,0.6231731,-101.8293,-325.5984,2230.461,0.7268123,0.1932339,0.6407325,0.1544875,-168.9695,-361.1823,2334.968,0.6231731,-0.3164293,0.5897033,-0.4046948
-84.56705,289.1792,2464.368,0.5362877,-0.4584217,0.5303763,-0.4700489,-85.40367,114.5442,2442.678,0.5211353,-0.4749855,0.515595,-0.4867941,-86.19353,-25.74481,2432.14,0.5272838,-0.449396,0.5484182,-0.4682442,-94.76682,-237.1947,2399.33,0.5631356,-0.4039691,0.5826905,-0.4244516,-60.14571,-204.0244,2405.547,0.7776039,-0.6063597,-0.06776256,0.1518829,73.06148,-159.1295,2394.435,0.7143857,-0.3303358,-0.3567775,0.5032306,138.1918,101.1095,2442.76,0.5725772,-0.4063699,-0.2669746,0.6601086,134.9803,323.6925,2389.964,0.5725772,-0.4063699,-0.2669746,0.6601086,130.563,417.9431,2400.876,0.1382841,0.6179259,0.7390835,0.2297838,109.4497,522.0706,2409.358,0.1382841,0.6179259,0.7390835,0.2297838,77.33186,446.7317,2388.81,-0.3313325,0.3457246,0.8259792,-0.2974083,-126.4475,-200.8102,2406.0,0.6040723,0.7769109,-0.1563761,-0.08397949,-247.995,-156.1289,2398.42,-0.41025667509902297,-0.6370074500728664,0.5530431354996069,0.3464884693104846,-289.0687652802411,117.98159489816732,2394.9974816983045,-0.6225492319027522,-0.3020916212326711,0.7219227025454052,-0.000847223611506961,-279.2774092114556,218.5897891328429,2187.0433999233555,-0.6225492319027522,-0.3020916212326711,0.7219227025454052,-0.000847223611506961,-263.3021,194.6479,2099.062,0.5388818,0.0763826,-0.7332671,-0.4075433,-220.6055,252.4002,2022.789,0.5388818,0.0763826,-0.7332671,-0.4075433,-223.7615,211.2402,2082.81,0.6272803,0.3461068,-0.660229,0.2254492,5.359158,288.5573,2465.906,0.5534431,-0.3403702,0.434219,-0.6239412,66.84251,678.0059,2487.976,0.6497738,-0.263233,0.4848714,-0.5228786,73.26002,1030.782,2621.888,0.5849587,-0.3552191,0.5288349,-0.5019726,111.6171,1174.114,2511.741,0.7722853,0.1210659,0.6211622,0.05546145,-165.6575,289.7399,2462.981,0.4395832,0.5602198,0.5188522,0.4729829,-160.0722,683.0891,2492.089,0.3769677,0.6208269,0.4445597,0.5242481,-139.0739,1044.33,2612.51,0.4267285,0.5800288,0.4598473,0.5196246,-148.1116,1172.635,2501.326,-0.06348194,0.7395548,-0.08158915,0.6651105,-97.93945,-313.6469,2374.082,0.6611569,-0.291312,0.5740465,-0.3853304,-74.38754,-276.1986,2221.878,0.6611569,-0.291312,0.5740465,-0.3853304,-54.98503,-324.9341,2239.1,0.7399783,0.1999235,0.6119009,0.1950388,-16.16284,-371.4481,2348.49,0.3853304,0.5740465,0.291312,0.6611569,-105.029,-316.137,2230.272,0.7399783,0.1999235,0.6119009,0.1950388,-178.0672,-360.8001,2327.088,0.6611569,-0.291312,0.5740465,-0.3853304
-89.20744,289.4827,2468.391,0.5346277,-0.4557708,0.5306019,-0.4742444,-91.53455,114.9739,2447.225,0.5223712,-0.4691417,0.5188174,-0.4877118,-93.51199,-25.05708,2435.367,0.5209867,-0.44666,0.5597033,-0.4645426,-105.9344,-235.7349,2400.294,0.5565619,-0.400337,0.5937198,-0.4212669,-70.73206,-203.1979,2406.212,0.7794901,-0.6014186,-0.05311165,0.1669435,61.4883,-157.5364,2389.589,0.7324584,-0.3096119,-0.3333172,0.5065026,133.5717,100.7186,2437.146,0.5820318,-0.383307,-0.2450216,0.6740022,127.0284,322.9678,2384.241,0.5820318,-0.383307,-0.2450216,0.6740022,131.2915,416.1142,2401.83,0.2265461,0.5559157,0.7516186,0.2733206,101.5555,518.2813,2397.925,0.2265461,0.5559157,0.7516186,0.2733206,75.12161,445.1404,2390.051,-0.2992783,0.3457651,0.8632641,-0.213668,-136.8896,-198.998,2408.004,0.5996864,0.7804441,-0.1468344,-0.09860473,-258.3735,-153.9705,2405.127,-0.42653494697159217,-0.6213198532168205,0.5700735909182553,0.32717836106340464,-296.05520924072647,119.75706166700294,2383.0217514903256,-0.6809052708547957,-0.11627264365649426,0.6969947628711577,-0.19247593353317147,-285.4889987951027,96.62738660622907,2153.2041001750017,-0.6809052708547957,-0.11627264365649426,0.6969947628711577,-0.19247593353317147,-253.3931,29.62355,2090.152,-0.2986014,0.4923012,0.7319981,0.3642191,-218.1273,-23.04332,2006.866,-0.2986014,0.4923012,0.7319981,0.3642191,-201.1509,10.1801,2098.551,0.5108301,-0.07587217,-0.8414508,0.1589228,0.6121844,288.0509,2470.321,0.5490911,-0.3412862,0.4334897,-0.6277815,65.32728,676.7494,2489.077,0.6491892,-0.2614278,0.485839,-0.5236119,73.0251,1028.833,2623.682,0.5933746,-0.3428004,0.5315008,-0.4978968,113.2605,1174.913,2518.225,0.775344,0.1318046,0.6142839,0.06422395,-170.2017,290.7737,2466.652,0.448244,0.5579025,0.5060998,0.4813368,-160.6039,683.3552,2499.504,0.3903584,0.612141,0.4389559,0.5293594,-139.9575,1045.549,2615.85,0.4379868,0.5720361,0.4662067,0.5134135,-148.0168,1170.102,2500.656,-0.05105552,0.7383799,-0.07151801,0.6686356,-110.7592,-311.7465,2374.247,0.6701007,-0.2555879,0.5703731,-0.4003926,-77.44292,-270.9367,2224.922,0.6701007,-0.2555879,0.5703731,-0.4003926,-61.49446,-321.0867,2241.438,0.7569531,0.2225868,0.5840427,0.1907125,-30.89335,-372.8947,2350.915,0.4003926,0.5703731,0.2555879,0.6701007,-110.4459,-309.4075,2230.403,0.7569531,0.2225868,0.5840427,0.1907125,-190.5448,-353.0932,2321.755,0.6701007,-0.2555879,0.5703731,-0.4003926
-102.5643,291.8226,2469.607,0.5298764,-0.4579153,0.5333225,-0.4744594,-105.9409,118.0771,2449.313,0.5136369,-0.4755747,0.5176369,-0.4919938,-108.74,-21.48184,2440.396,0.5418285,-0.4312662,0.552932,-0.4633547,-117.4633,-230.1118,2398.818,0.5772413,-0.3855358,0.5857359,-0.4184114,-83.04668,-197.6156,2407.186,0.7854097,-0.5939,-0.06138349,0.1632372,48.61669,-151.4469,2393.522,0.7378604,-0.2979771,-0.3123074,0.5188793,120.8276,106.5063,2434.62,0.5959318,-0.362793,-0.2338964,0.6771551,114.8016,328.6828,2386.271,0.5959318,-0.362793,-0.2338964,0.6771551,116.8032,422.5855,2396.06,0.05856372,0.6599575,0.7343071,0.1477141,103.8696,527.1246,2407.607,0.05856372,0.6599575,0.7343071,0.1477141,62.80744,455.663,2387.06,-0.4082507,0.3472888,0.7582598,-0.3711655,-148.9407,-194.0685,2406.21,0.5860718,0.7884331,-0.1703323,-0.07668149,-268.9104,-147.8362,2396.055,-0.44563618390367227,-0.5753533218089707,0.6397113059872556,0.24727796438671057,-285.3329705441047,117.30121832777118,2316.885688910738,-0.662564270114888,0.123077186576817,0.644049967313906,-0.3620224215631093,-264.1251291739809,-30.27787511659767,2140.155900334369,-0.662564270114888,0.123077186576817,0.644049967313906,-0.3620224215631093,-257.5911,-123.7442,2121.404,-0.3040054,0.4350625,0.8466329,0.03891119,-212.1151,-198.0112,2064.261,-0.3040054,0.4350625,0.8466329,0.03891119,-214.7048,-149.9968,2139.052,0.6250556,-0.300068,-0.5399029,0.4772522,-13.1693,289.9625,2470.659,0.5406761,-0.3274033,0.4173482,-0.6529142,65.72512,674.4423,2479.99,0.6583942,-0.2391142,0.4734902,-0.533993,72.73508,1023.231,2618.11,0.595443,-0.3375423,0.5395314,-0.4903251,112.0315,1171.058,2516.345,0.7714857,0.1412331,0.616297,0.07099994,-183.1757,293.5,2468.659,0.446162,0.5660506,0.5040701,0.4758567,-167.9012,683.8269,2503.533,0.3934687,0.616177,0.4413992,0.5202644,-141.746,1045.302,2614.927,0.4359453,0.5807632,0.4540064,0.516279,-147.2219,1172.223,2503.423,-0.05460954,0.7359874,-0.08630513,0.6692472,-120.372,-304.9891,2370.491,0.6501085,-0.2625064,0.5877102,-0.4037897,-93.81965,-266.437,2220.02,0.6501085,-0.2625064,0.5877102,-0.4037897,-78.21293,-316.5308,2236.146,0.7452185,0.2299538,0.6011939,0.1741737,-43.46142,-367.7642,2343.959,0.4037897,0.5877102,0.2625064,0.6501085,-127.1585,-303.9491,2227.484,0.7452185,0.2299538,0.6011939,0.1741737,-203.1419,-344.8654,2322.679,0.6501085,-0.2625064,0.5877102,-0.4037897
-114.0128,289.8321,2471.092,0.5309807,-0.4639577,0.5332128,-0.4674257,-114.9958,116.4132,2450.51,0.5127253,-0.4840006,0.5150883,-0.4873808,-115.7933,-22.97768,2442.641,0.5621457,-0.414526,0.5401017,-0.4695216,-121.0357,-230.5207,2397.213,0.5979877,-0.3698784,0.5716044,-0.4229291,-87.38406,-198.0871,2408.063,0.7825879,-0.5940373,-0.0679932,0.1733572,42.84534,-148.8142,2394.134,0.6930587,-0.3617397,-0.3772839,0.4964584,102.9986,111.1723,2438.438,0.5564998,-0.4404813,-0.2813804,0.64584,104.6858,330.6523,2380.365,0.5564998,-0.4404813,-0.2813804,0.64584,106.8596,423.7056,2395.239,0.08391673,0.6400318,0.7378953,0.197048,89.23414,527.1117,2408.819,0.08391673,0.6400318,0.7378953,0.197048,49.31668,455.563,2382.893,-0.3773718,0.3334566,0.790486,-0.3486104,-153.0116,-194.8074,2403.386,0.5756406,0.7966883,-0.1807945,-0.03520132,-273.0106,-152.5055,2383.811,-0.5001065535811897,-0.5072629536539728,0.6917689000517403,0.11846315814040022,-277.1254320089938,74.8767233344582,2225.331588377682,-0.588628356533409,0.32213313020977274,0.5489628218842068,-0.4983841134054739,-254.12040889120152,-142.56375113435882,2150.143899878729,-0.588628356533409,0.32213313020977274,0.5489628218842068,-0.4983841134054739,-262.5321,-228.1464,2138.032,0.1424797,0.5242296,0.7994061,0.2565791,-219.9297,-322.8879,2133.747,0.1424797,0.5242296,0.7994061,0.2565791,-206.9306,-254.7678,2181.909,-0.3356773,0.3759184,0.8034992,-0.3168522,-24.75767,289.3171,2471.168,0.5321205,-0.3195861,0.4042418,-0.6717895,65.14983,670.7463,2471.49,0.661537,-0.2274625,0.4623907,-0.5448161,73.11182,1019.492,2607.788,0.6057283,-0.3235445,0.553777,-0.4708961,110.544,1173.072,2514.828,0.7650896,0.1613219,0.6165745,0.0919188,-194.498,290.2965,2471.023,0.4437236,0.5731258,0.5118561,0.4611284,-174.6401,680.1688,2500.118,0.3855389,0.6302053,0.4396781,0.5107682,-139.9741,1038.953,2615.454,0.4233741,0.5989922,0.4516557,0.5079073,-147.8513,1168.507,2507.653,-0.0577248,0.7471871,-0.1007942,0.6543851,-121.9314,-304.7785,2367.566,0.6205981,-0.2954964,0.6155289,-0.3855697,-112.5703,-268.0655,2214.901,0.6205981,-0.2954964,0.6155289,-0.3855697,-94.12952,-317.4323,2229.896,0.711468,0.2262972,0.6441922,0.1661902,-46.89835,-366.0492,2333.844,0.3855697,0.6155289,0.2954964,0.6205981,-143.9251,-306.1491,2226.366,0.711468,0.2262972,0.6441922,0.1661902,-208.1598,-347.2368,2329.492,0.6205981,-0.2954964,0.6155289,-0.3855697
-122.1636,290.0805,2472.609,0.5318342,-0.4587226,0.5276616,-0.4778065,-124.5753,116.4457,2453.706,0.5187078,-0.4728355,0.5150533,-0.4920253,-126.6335,-22.85253,2444.073,0.5622281,-0.4100958,0.5395973,-0.4738731,-133.4002,-230.3921,2398.61,0.5984188,-0.365503,0.5707464,-0.42726,-99.53722,-198.2599,2409.743,0.7836064,-0.5949473,-0.06758706,0.1656222,31.47039,-150.6737,2396.985,0.6990808,-0.3638607,-0.3675177,0.4937835,97.00643,108.4864,2438.791,0.5518231,-0.4448384,-0.2637852,0.654238,98.09191,325.7499,2372.723,0.5518231,-0.4448384,-0.2637852,0.654238,88.40341,416.6837,2395.657,0.137419,0.5302091,0.7860592,0.2865402,46.08608,513.202,2404.948,0.137419,0.5302091,0.7860592,0.2865402,28.54821,438.3787,2387.88,-0.3274736,0.264935,0.8726219,-0.2471872,-165.1047,-194.3777,2404.511,0.5756959,0.7980498,-0.1774507,-0.01421005,-285.7058,-155.8018,2381.124,-0.5374956667971502,-0.4789073561596235,0.6882145570801574,0.0900381908605961,-295.8254782182881,53.74769601296083,2199.955757549474,-0.588631234178566,0.3159615292749374,0.5359577296317927,-0.5161694433183693,-271.0008990556459,-165.0677717385572,2129.483700180812,-0.588631234178566,0.3159615292749374,0.5359577296317927,-0.5161694433183693,-273.92,-252.9475,2146.047,0.1718273,0.4747129,0.8537416,0.1274686,-222.9389,-341.7939,2163.971,0.1718273,0.4747129,0.8537416,0.1274686,-235.4689,-270.803,2166.868,-0.3777655,0.4445237,0.7663945,-0.2689449,-32.92123,288.6243,2474.599,0.5219451,-0.322731,0.3976409,-0.6821288,63.83076,668.3362,2464.724,0.6616405,-0.2253914,0.4598604,-0.5476851,72.39458,1017.479,2600.194,0.6305128,-0.2915452,0.5624463,-0.4484519,111.1245,1178.966,2522.307,0.7667596,0.1903211,0.6001633,0.1251461,-202.6373,291.3936,2470.814,0.4431617,0.5779004,0.5040395,0.4643092,-178.8617,680.6295,2506.017,0.392673,0.6271164,0.4413129,0.5077162,-142.9251,1041.093,2615.874,0.4231263,0.6021372,0.4402628,0.5143575,-147.9086,1172.914,2510.621,-0.06250326,0.7414224,-0.1110695,0.6588244,-134.7282,-304.6598,2368.957,0.6368932,-0.2964562,0.5965543,-0.3880771,-119.3851,-269.0851,2216.47,0.6368932,-0.2964562,0.5965543,-0.3880771,-100.5609,-317.9104,2232.751,0.7247634,0.2122014,0.6314538,0.1759395,-56.9454,-364.5687,2339.18,0.3880771,0.5965543,0.2964562,0.6368932,-150.3939,-307.7571,2226.91,0.7247634,0.2122014,0.6314538,0.1759395,-218.259,-349.3519,2327.512,0.6368932,-0.2964562,0.5965543,-0.3880771
-132.2825,289.6696,2472.045,0.5354448,-0.4535679,0.5310067,-0.474981,-134.9855,117.1527,2450.638,0.5118024,-0.4787633,0.5084068,-0.5003663,-137.4442,-21.70052,2444.905,0.5727141,-0.403387,0.5431386,-0.4629016,-141.4543,-226.8152,2393.178,0.6079912,-0.3585318,0.5737382,-0.415483,-108.1926,-194.7925,2405.418,0.7955561,-0.5812899,-0.06980509,0.155948,22.98451,-148.9196,2395.634,0.705164,-0.3439152,-0.36964,0.4978275,85.21176,108.6278,2443.81,0.5468395,-0.4300464,-0.2645212,0.6678736,77.96685,325.1518,2379.362,0.5468395,-0.4300464,-0.2645212,0.6678736,79.9905,417.7104,2394.684,0.2570652,0.4763016,0.802991,0.249519,36.38413,511.7676,2376.24,0.2570652,0.4763016,0.802991,0.249519,13.31728,436.4381,2383.734,-0.2906089,0.2700595,0.8800415,-0.2610389,-173.4718,-191.5541,2400.017,0.5627013,0.8096946,-0.1659157,-0.01529121,-294.5162,-154.9142,2379.26,-0.5354281493913549,-0.4717232745479545,0.6971395910153091,0.06921155776394325,-299.6199871447316,47.94313280403762,2190.4262500410664,-0.5717913245763185,0.33902108429683175,0.5316596416487602,-0.5248403671435453,-272.7431901713113,-174.18688127428445,2132.12810120507,-0.5717913245763185,0.33902108429683175,0.5316596416487602,-0.5248403671435453,-278.0114,-260.3842,2157.839,0.07958512,0.5202804,0.8497528,0.02991077,-231.8535,-352.3978,2168.617,0.07958512,0.5202804,0.8497528,0.02991077,-228.9549,-272.0644,2221.915,-0.308111,0.5173699,0.5853728,-0.5428945,-43.46594,288.0066,2474.232,-0.4998384,0.3495784,-0.4046711,0.6813207,56.3751,664.1097,2446.217,0.6575106,-0.2344844,0.4806071,-0.5307671,65.84312,1008.385,2589.054,0.6632856,-0.247177,0.5564057,-0.435165,109.721,1174.954,2528.556,0.7804422,0.2177231,0.5645308,0.1575169,-212.3723,291.1692,2470.073,0.4363192,0.5818568,0.5147275,0.4540085,-189.8219,679.0079,2500.925,0.3810665,0.6374273,0.4440658,0.5012787,-150.9953,1036.249,2614.19,0.4217619,0.6046882,0.4103864,0.5367047,-148.6581,1172.965,2516.633,-0.07934324,0.7222808,-0.1339783,0.6738434,-141.7411,-299.7842,2361.357,0.6195416,-0.3247842,0.6055722,-0.379428,-136.3901,-268.5428,2208.003,0.6195416,-0.3247842,0.6055722,-0.379428,-115.4343,-316.1492,2224.428,0.7063782,0.1985471,0.6578613,0.1697859,-64.62871,-358.3061,2328.852,0.379428,0.6055722,0.3247842,0.6195416,-165.544,-307.4705,2221.3,0.7063782,0.1985471,0.6578613,0.1697859,-225.9422,-347.5519,2326.412,0.6195416,-0.3247842,0.6055722,-0.379428
-135.7722,292.4524,2476.331,0.5468389,-0.4398268,0.5219136,-0.4848978,-138.5648,120.3796,2453.827,0.5238059,-0.4635156,0.5009936,-0.5096922,-141.557,-18.15131,2446.57,0.570111,-0.3991391,0.5459896,-0.46643,-148.2604,-222.7586,2394.607,0.6056795,-0.3540688,0.5762393,-0.4192086,-114.6405,-191.2571,2406.899,0.7982051,-0.5807143,-0.06644572,0.1456861,17.29816,-148.1806,2398.12,0.7110927,-0.3394698,-0.3632179,0.4971722,82.299,108.2025,2446.246,0.5447469,-0.4271011,-0.2544636,0.6753398,72.89646,323.2669,2378.636,0.5447469,-0.4271011,-0.2544636,0.6753398,72.72425,416.1706,2390.652,0.2578427,0.4792423,0.802662,0.2440856,29.86818,510.2749,2371.733,0.2578427,0.4792423,0.802662,0.2440856,7.031284,434.2112,2378.319,-0.2808236,0.2751005,0.8769027,-0.2765853,-179.754,-187.1451,2401.468,0.562048,0.8089777,-0.1715704,-0.01485441,-300.1042,-149.4938,2379.868,-0.5295112983599077,-0.47006630477587263,0.7038142220403633,0.05745428510807133,-300.8496452157782,50.78412929449132,2188.234165335865,-0.5564380266072664,0.36488307080399124,0.5224709391279933,-0.5331614998785765,-274.3808695149852,-174.5686920889253,2143.756200733997,-0.5564380266072664,0.36488307080399124,0.5224709391279933,-0.5331614998785765,-281.0715,-260.7215,2162.654,0.109552,0.5167552,0.8457029,0.07582211,-235.4093,-352.7491,2173.702,0.109552,0.5167552,0.8457029,0.07582211,-218.3329,-269.2762,2231.304,-0.2619063,0.4561454,0.6354756,-0.5652496,-47.30198,290.2241,2482.391,-0.4840493,0.3715009,-0.4078262,0.6792357,52.15377,664.335,2439.605,0.6506091,-0.2465809,0.4934956,-0.5218887,63.99409,1007.682,2582.819,0.6656559,-0.2427354,0.5551159,-0.4356925,108.7921,1174.153,2523.692,0.7824727,0.2199724,0.560474,0.1588006,-215.5497,294.4618,2470.866,0.4338379,0.5859918,0.5111312,0.45513,-190.9608,681.1486,2505.844,0.3831862,0.6369452,0.4460379,0.498517,-151.4448,1038.559,2616.132,0.4353875,0.5947458,0.4177157,0.531252,-147.9082,1171.316,2513.76,-0.06575801,0.7204177,-0.1218522,0.6795781,-149.4982,-295.5413,2362.727,0.6297286,-0.2887505,0.5961872,-0.4057411,-131.7288,-263.2019,2210.819,0.6297286,-0.2887505,0.5961872,-0.4057411,-114.9688,-312.1091,2227.913,0.7321876,0.2173906,0.6257454,0.1583831,-74.23754,-358.3472,2334.745,0.4057411,0.5961872,0.2887505,0.6297286,-164.0263,-300.2912,2221.524,0.7321876,0.2173906,0.6257454,0.1583831,-233.7496,-337.5003,2321.529,0.6297286,-0.2887505,0.5961872,-0.4057411
-142.7491,294.3008,2479.518,0.5428115,-0.4425721,0.5306976,-0.477332,-146.1903,121.2216,2455.215,0.5252717,-0.4613944,0.5144174,-0.4965679,-149.3224,-18.02369,2443.735,0.5730473,-0.3869876,0.5515038,-0.4665843,-158.7213,-222.828,2386.979,0.6086186,-0.3415144,0.5807614,-0.419127,-124.4934,-191.8861,2400.309,0.8083755,-0.571768,-0.07170961,0.1202832,10.08493,-153.1604,2397.281,0.7177917,-0.3240451,-0.3533612,0.5048819,75.19537,105.1067,2446.04,0.5514577,-0.4086582,-0.2507345,0.6826603,62.06278,322.7896,2382.085,0.5514577,-0.4086582,-0.2507345,0.6826603,54.93326,414.4407,2403.338,0.4129186,0.4106135,0.7198588,0.3777538,20.86311,510.0616,2373.241,0.4129186,0.4106135,0.7198588,0.3777538,-2.576821,430.5659,2383.072,-0.1174894,0.2871232,0.9503766,-0.02325577,-189.9574,-186.6339,2394.389,0.5517526,0.8170563,-0.1637431,-0.03429586,-311.6049,-147.2772,2378.326,-0.514985727480034,-0.4778787668671505,0.7091708714366856,0.059146088417779304,-308.0449324625499,57.48848956598667,2191.5275250414547,-0.54997162685295,0.3750511705942945,0.5270112368135952,-0.5283246969097446,-281.7469089403254,-168.28406148551542,2149.1253001209225,-0.54997162685295,0.3750511705942945,0.5270112368135952,-0.5283246969097446,-286.9477,-255.5417,2158.381,0.1343022,0.5414175,0.816893,0.1466824,-247.6446,-351.6984,2164.687,0.1343022,0.5414175,0.816893,0.1466824,-226.5588,-268.1438,2230.744,-0.2424996,0.4453562,0.6871374,-0.5202826,-53.52553,291.9625,2483.536,-0.4694628,0.3910427,-0.4211518,0.6703145,45.86769,668.0508,2433.007,0.6411318,-0.2547673,0.5151533,-0.508587,63.89499,1010.935,2583.495,0.6504441,-0.253435,0.5617377,-0.4440089,109.6921,1176.328,2518.353,0.7776119,0.2169548,0.5727396,0.1421961,-223.2059,296.4093,2475.894,0.4494396,0.5790532,0.499254,0.4620033,-193.9754,685.6986,2509.702,0.4001749,0.6268852,0.4376975,0.5052681,-153.7246,1046.787,2616.979,0.4473392,0.5876063,0.4176938,0.529281,-147.4452,1178.152,2511.021,-0.05585503,0.7153751,-0.1168976,0.6866248,-160.7946,-295.4134,2353.31,0.6561455,-0.2904114,0.589896,-0.3703472,-142.871,-253.914,2202.487,0.6561455,-0.2904114,0.589896,-0.3703472,-122.7618,-302.66,2217.565,0.72584,0.2117675,0.6224713,0.20209,-80.19756,-351.6063,2323.502,0.3703471,0.5898959,0.2904114,0.6561456,-172.7936,-293.9891,2210.771,0.72584,0.2117675,0.6224713,0.20209,-241.723,-341.4379,2308.131,0.6561455,-0.2904114,0.589896,-0.3703472
-147.165,294.8937,2481.027,0.5480901,-0.4358409,0.530187,-0.4780603,-150.7076,121.4677,2454.729,0.5304766,-0.4546948,0.514109,-0.497533,-154.0314,-18.14476,2441.692,0.5777119,-0.3794004,0.5546953,-0.463268,-163.6611,-222.5491,2380.791,0.6130023,-0.3336957,0.5833343,-0.4154474,-129.3089,-191.8484,2394.96,0.8132457,-0.5647951,-0.07328033,0.1194486,5.749211,-152.8996,2392.747,0.7177732,-0.3217703,-0.3624155,0.4999205,70.28265,105.5093,2446.703,0.5495065,-0.4102159,-0.2580776,0.6805597,56.70443,324.3991,2384.042,0.5495065,-0.4102159,-0.2580776,0.6805597,50.6299,418.0204,2396.895,0.4414019,0.4403143,0.6721187,0.3994298,26.97886,518.3843,2371.223,0.4414019,0.4403143,0.6721187,0.3994298,1.602232,438.2976,2376.118,-0.06153576,0.341232,0.9378228,0.01620449,-194.959,-186.2854,2388.727,0.5434294,0.8226041,-0.1637327,-0.03462297,-317.0423,-146.5813,2373.079,-0.5112814609024738,-0.48359603433876197,0.707050804776715,0.0693202912129968,-314.42225665544186,62.62613765985574,2191.252944001939,-0.55803713865288,0.3612117785519441,0.5365385591426854,-0.5198528421318276,-287.54489951237315,-161.1493507560427,2139.6301003673616,-0.55803713865288,0.3612117785519441,0.5365385591426854,-0.5198528421318276,-288.6527,-249.7613,2152.687,0.09696225,0.5174413,0.8430783,0.1098718,-242.1,-343.1156,2157.887,0.09696225,0.5174413,0.8430783,0.1098718,-225.8135,-241.1956,2253.903,0.1118567,-0.4842766,-0.5956556,0.6309982,-57.68523,292.2787,2486.218,-0.4767776,0.3751716,-0.4043309,0.6844311,46.19322,668.6579,2435.823,0.6569781,-0.2397408,0.4967571,-0.5139422,54.39853,1012.352,2588.688,0.663003,-0.24183,0.523223,-0.477685,110.8114,1173.601,2519.719,0.8100554,0.1979592,0.537053,0.1272657,-227.8528,297.2517,2476.346,0.4689891,0.5684717,0.4764358,0.4794769,-193.9448,687.1433,2514.985,0.4237919,0.6092596,0.4230393,0.5198469,-155.3185,1050.654,2619.496,0.4889679,0.5542323,0.4447183,0.5059274,-146.2375,1167.934,2497.458,-0.009603659,0.7107888,-0.07447811,0.6993854,-165.7297,-294.7388,2345.614,0.6539081,-0.3023546,0.6009498,-0.3461866,-155.4345,-249.5721,2194.535,0.6539081,-0.3023546,0.6009498,-0.3461866,-132.8467,-297.9683,2207.852,0.7071738,0.2111386,0.6387327,0.217592,-84.06695,-347.4355,2311.367,0.3461866,0.6009498,0.3023546,0.6539081,-183.5838,-291.0576,2203.207,0.7071738,0.2111386,0.6387327,0.217592,-246.9361,-343.123,2302.59,0.6539081,-0.3023546,0.6009498,-0.3461866
-146.273,294.868,2482.033,0.5469798,-0.4347214,0.5365065,-0.473277,-150.5703,121.2128,2453.719,0.5328174,-0.4503193,0.5234829,-0.4891664,-154.3185,-18.47067,2437.223,0.5734565,-0.3776032,0.5606914,-0.4628049,-166.6533,-223.1114,2375.235,0.6087235,-0.3314234,0.5891669,-0.415327,-131.7419,-192.7278,2389.241,0.8175256,-0.5616792,-0.061674,0.1111963,4.723176,-157.3172,2385.846,0.7236476,-0.3097109,-0.3560678,0.503616,69.92594,101.5156,2441.292,0.5631517,-0.3934451,-0.2605879,0.6783473,57.08459,323.2505,2386.313,0.5631517,-0.3934451,-0.2605879,0.6783473,55.95893,417.4306,2398.677,0.4083222,0.4417753,0.7285141,0.3276809,26.51502,514.5708,2366.121,0.4083222,0.4417753,0.7285141,0.3276809,1.138933,438.4862,2377.177,-0.1325387,0.3402717,0.9257959,-0.0977279,-197.6023,-186.4628,2383.698,0.5414011,0.8245645,-0.1565196,-0.04979607,-320.3398,-145.9794,2372.364,-0.5243243658050427,-0.47974970139466516,0.6994527116725103,0.07543266910856035,-323.1537988994049,61.97749924076632,2189.1118766630525,-0.5715509406742627,0.33806399436745505,0.5396639544674059,-0.5174988639362297,-295.85022922926584,-159.16979195624998,2127.377200773566,-0.5715509406742627,0.33806399436745505,0.5396639544674059,-0.5174988639362297,-288.9142,-248.0093,2154.065,-0.01765558,0.5398366,0.8410706,-0.02941016,-245.2709,-343.2655,2154.281,-0.01765558,0.5398366,0.8410706,-0.02941016,-232.5869,-245.9072,2230.477,0.2706703,-0.5130068,-0.4965833,0.6457295,-56.46391,291.9657,2486.203,-0.4818148,0.3736286,-0.4057567,0.6808948,44.84264,670.8439,2439.677,0.6545793,-0.2438176,0.4947678,-0.5169948,53.96072,1017.369,2589.002,0.6540229,-0.2538125,0.521139,-0.4860529,110.5244,1176.549,2514.047,0.8096222,0.1879206,0.5440218,0.1150567,-227.2579,297.4851,2478.273,0.4663288,0.569487,0.4845673,0.4726694,-194.2939,689.1377,2512.368,0.4129754,0.6182482,0.4205917,0.5199262,-154.0327,1051.284,2625.074,0.47582,0.5662828,0.4402599,0.5090091,-146.9431,1172.991,2506.541,-0.02117688,0.7161625,-0.08606242,0.6922833,-169.8146,-295.3296,2339.618,0.6505703,-0.2889717,0.6201907,-0.3295709,-163.5903,-242.745,2190.2,0.6505703,-0.2889717,0.6201907,-0.3295709,-140.9828,-292.0598,2200.493,0.6930645,0.2342072,0.6428749,0.2269809,-89.43145,-347.0693,2300.279,0.3295709,0.6201907,0.2889717,0.6505703,-191.9323,-284.5228,2197.713,0.6930645,0.2342072,0.6428749,0.2269809,-252.961,-341.0818,2296.624,0.6505703,-0.2889717,0.6201907,-0.3295709
-146.5116,294.7928,2481.872,0.5470908,-0.4344863,0.5366749,-0.4731736,-150.8371,121.2026,2453.457,0.5334241,-0.4495611,0.5241117,-0.4885287,-154.5942,-18.3993,2436.597,0.5737036,-0.3767006,0.5620682,-0.4615629,-167.0949,-222.7378,2373.847,0.6088701,-0.3304133,0.5904667,-0.4140692,-132.161,-192.4308,2387.918,0.8185796,-0.560074,-0.06102516,0.1118951,4.24613,-156.9658,2384.333,0.7243177,-0.3078062,-0.3564126,0.5035765,69.31926,101.6544,2440.56,0.563751,-0.3917232,-0.2613952,0.6785353,56.17181,323.5039,2386.376,0.563751,-0.3917232,-0.2613952,0.6785353,55.03285,417.5599,2399.467,0.4019542,0.4443525,0.7303935,0.3278857,24.98378,514.8251,2367.946,0.4019542,0.4443525,0.7303935,0.3278857,0.03729016,438.5727,2379.77,-0.1403936,0.3384127,0.9262365,-0.08861411,-198.0089,-186.1199,2382.494,0.5398051,0.8255261,-0.1563231,-0.05177083,-320.6776,-145.3945,2371.691,-0.5239670130219871,-0.48160823440412837,0.6979737699976298,0.07965358883471986,-324.27444654881384,64.09934498273603,2190.211737139491,-0.5750489632292407,0.3323150002278521,0.5422124935749227,-0.5146756671184314,-297.0433999210905,-156.0912221691907,2125.1167007345425,-0.5750489632292407,0.3323150002278521,0.5422124935749227,-0.5146756671184314,-291.5143,-245.4433,2148.75,-0.02460734,0.5481391,0.8358969,-0.01464298,-249.8366,-341.5096,2146.123,-0.02460734,0.5481391,0.8358969,-0.01464298,-236.3617,-247.2212,2224.894,0.2867941,-0.5155013,-0.5037783,0.6310428,-56.72726,291.8725,2486.045,-0.4825076,0.3729189,-0.4058331,0.6807477,44.44307,670.7611,2440.208,0.6554835,-0.2428459,0.4947728,-0.5163014,53.02162,1016.841,2590.338,0.6529249,-0.2555853,0.5218917,-0.4857924,109.153,1175.88,2514.881,0.8086698,0.1871901,0.5458106,0.1144716,-227.4741,297.4262,2478.109,0.4656526,0.5700639,0.4853425,0.4718448,-194.4975,688.9882,2512.012,0.4128649,0.6185203,0.4218648,0.5186573,-154.0601,1051.282,2623.833,0.477385,0.5649661,0.4429179,0.5066957,-147.307,1172.035,2504.373,-0.0184202,0.7170966,-0.08326413,0.6917372,-170.3342,-294.7965,2337.964,0.6508096,-0.2882713,0.6207358,-0.3286844,-164.1875,-241.8506,2188.716,0.6508096,-0.2882713,0.6207358,-0.3286844,-141.575,-291.1749,2198.871,0.6926069,0.2350879,0.6427651,0.2277769,-89.98426,-346.4132,2298.468,0.3286844,0.6207358,0.2882713,0.6508096,-192.5131,-283.6395,2196.135,0.6926069,0.2350879,0.6427651,0.2277769,-253.4726,-340.4391,2294.905,0.6508096,-0.2882713,0.6207358,-0.3286844
-143.4664,297.1324,2474.428,0.5472184,-0.4275049,0.5403112,-0.4752426,-149.8293,125.1874,2444.661,0.521022,-0.4557861,0.5166774,-0.5038249,-155.6356,-13.85337,2433.621,0.5622777,-0.3745459,0.5637618,-0.4751123,-174.2509,-217.3725,2375.412,0.5985677,-0.3281297,0.5919822,-0.4284913,-138.6621,-188.0724,2388.697,0.8131446,-0.5695924,-0.05168562,0.1081159,-2.762705,-155.2327,2383.225,0.7431055,-0.2800632,-0.3144419,0.5200816,67.9081,101.4706,2430.833,0.5864484,-0.3508092,-0.2328994,0.6919314,52.92015,322.8018,2382.637,0.5864484,-0.3508092,-0.2328994,0.6919314,55.28532,416.4806,2392.713,0.1876499,0.5467132,0.7888924,0.2086645,20.19556,515.9917,2385.531,0.1876499,0.5467132,0.7888924,0.2086645,-7.407576,439.4744,2387.086,-0.3414108,0.2954892,0.8413398,-0.2971062,-203.8104,-179.9715,2383.34,0.5469942,0.8149964,-0.1807394,-0.06254135,-323.1127,-133.2435,2371.011,-0.49622457049507174,-0.5081526250426481,0.6944110244470573,0.11547906488033167,-325.58414394817805,94.14836794790386,2212.5112788800116,-0.5977457225807695,0.2713523599638779,0.593819616774951,-0.4652378000675331,-293.64428992078234,-108.96854220352446,2106.7467003911092,-0.5977457225807695,0.2713523599638779,0.593819616774951,-0.4652378000675331,-302.612,-200.5448,2114.529,0.1377564,0.5747163,0.7872654,0.1758909,-271.2747,-299.6529,2116.06,0.1377564,0.5747163,0.7872654,0.1758909,-251.1191,-220.4955,2192.433,-0.2453751,0.4962151,0.6767889,-0.4853024,-54.42768,293.0555,2478.945,0.5056271,-0.355433,0.4034975,-0.6746839,38.0526,672.7886,2450.9,0.6571848,-0.2443023,0.4790215,-0.5281695,44.36217,1020.4,2590.035,0.6346253,-0.2717402,0.4837254,-0.5379757,111.0448,1165.06,2499.213,0.8323784,0.1485495,0.5299845,0.06477313,-223.7565,300.8086,2470.355,0.4621948,0.5706528,0.4835217,0.4763804,-193.0159,689.1738,2508.218,0.4114368,0.616899,0.422944,0.5208395,-155.292,1048.824,2619.692,0.4715343,0.5673413,0.430352,0.5201697,-146.6073,1172.587,2505.377,-0.03212435,0.709965,-0.0937779,0.6972255,-179.6953,-289.4466,2341.233,0.6382191,-0.2962868,0.5957763,-0.3872222,-164.1072,-253.6311,2188.883,0.6382191,-0.2962868,0.5957763,-0.3872222,-145.2091,-302.4182,2205.13,0.7250965,0.2117711,0.6307839,0.1774816,-101.7312,-349.1082,2311.552,0.3872222,0.5957763,0.2962868,0.6382191,-195.0364,-292.3784,2199.196,0.7250965,0.2117711,0.6307839,0.1774816,-263.0003,-334.2631,2299.555,0.6382191,-0.2962868,0.5957763,-0.3872222
-143.428,296.3193,2465.835,0.5469056,-0.4273805,0.5419728,-0.4738203,-149.9391,124.477,2435.578,0.5156239,-0.4610247,0.5136582,-0.5076844,-155.9664,-14.71792,2426.985,0.5566717,-0.384367,0.5544767,-0.4847001,-174.0801,-220.1657,2375.876,0.5937486,-0.3386638,0.5835146,-0.4384977,-138.5756,-190.3526,2388.2,0.8028844,-0.5837646,-0.05106228,0.1094905,-2.750799,-157.4134,2381.787,0.7443221,-0.2864345,-0.3091701,0.5180286,70.84658,99.05571,2426.002,0.5884954,-0.3555164,-0.2263604,0.6899582,58.46096,319.9306,2375.118,0.5884954,-0.3555164,-0.2263604,0.6899582,65.22723,412.6934,2390.316,0.2135713,0.5158032,0.7988041,0.2241571,25.39305,509.9656,2378.687,0.2135713,0.5158032,0.7988041,0.2241571,2.486885,438.4896,2382.3,-0.3343814,0.3071508,0.8493842,-0.2690613,-203.7239,-182.5712,2382.438,0.5617143,0.8003631,-0.2033384,-0.05049234,-321.1347,-133.3763,2363.439,-0.37427033970058216,-0.5763952885496798,0.6982877099327313,0.2002110344487634,-305.78377607946544,131.29919013307912,2282.528152168944,-0.6052320452813109,0.1706169595729875,0.706623855871131,-0.324448379229248,-257.41985892803984,-15.26142333032604,2110.3547000147564,-0.6052320452813109,0.1706169595729875,0.706623855871131,-0.324448379229248,-294.0345,-97.64584,2083.127,0.1762093,0.3674161,0.8774781,0.2529584,-224.6058,-173.9388,2095.95,0.1762093,0.3674161,0.8774781,0.2529584,-239.3005,-134.4139,2211.792,-0.1171479,0.5781736,0.6002443,-0.5400911,-54.38211,292.2034,2470.05,0.5161502,-0.336535,0.4022641,-0.6771387,39.9137,672.1677,2454.18,0.6614827,-0.2320694,0.4703363,-0.5360674,46.34261,1019.471,2594.01,0.6628264,-0.243672,0.5032332,-0.4980375,107.3987,1175.988,2520.581,0.824202,0.1824822,0.5240893,0.1127907,-223.7247,300.0309,2462.035,0.4541467,0.5775512,0.4902623,0.4688585,-192.5585,688.354,2499.718,0.4029265,0.6255059,0.4274029,0.5135362,-151.9896,1047.265,2612.484,0.4591365,0.5794252,0.4334543,0.5153421,-147.0739,1173.078,2500.217,-0.03756417,0.7206572,-0.1000539,0.6850046,-179.3197,-293.3935,2344.224,0.645014,-0.2966264,0.5544482,-0.4342314,-149.3453,-271.1672,2191.447,0.645014,-0.2966264,0.5544482,-0.4342314,-133.5796,-318.8575,2213.31,0.7631418,0.1823076,0.6018007,0.1490458,-101.1179,-357.383,2326.695,0.4342314,0.5544482,0.2966264,0.645014,-182.3339,-308.0683,2202.127,0.7631418,0.1823076,0.6018007,0.1490458,-260.1327,-339.4235,2299.12,0.645014,-0.2966264,0.5544482,-0.4342314
-139.2245,296.5179,2453.523,0.5462278,-0.43043,0.5332314,-0.4816943,-145.1198,123.8534,2426.722,0.5130954,-0.4648305,0.503526,-0.5168436,-150.8971,-15.7049,2421.665,0.5418357,-0.402554,0.5556476,-0.4854073,-169.847,-222.9836,2377.602,0.579017,-0.3566983,0.5861402,-0.4403924,-134.0284,-192.6337,2387.755,0.7943328,-0.5940216,-0.05636861,0.1140013,1.528665,-157.8808,2381.327,0.7377748,-0.3058156,-0.3209157,0.5090955,76.18172,98.70203,2425.238,0.5782745,-0.3793284,-0.2293906,0.6849004,66.31343,318.2981,2367.437,0.5782745,-0.3793284,-0.2293906,0.6849004,70.52679,411.5085,2381.53,0.1881415,0.5326779,0.7954046,0.2195189,32.22501,509.9848,2374.602,0.1881415,0.5326779,0.7954046,0.2195189,8.357368,435.9216,2376.9,-0.3485166,0.2973371,0.8462512,-0.2720032,-199.457,-185.259,2384.026,0.5752001,0.7897142,-0.195823,-0.08455586,-316.6061,-132.863,2372.205,-0.3630087522591062,-0.6012811129679386,0.6705861341524586,0.23874653013977956,-312.8997322479228,138.71735326271454,2316.8361838764317,0.6029333693056379,0.008262233879273278,-0.7701515679995273,0.20801358123195934,-249.82138881552225,83.66138924285903,2101.3071998780874,0.6029333693056379,0.008262233879273278,-0.7701515679995273,0.20801358123195934,-232.3542,0.5635321,2055.36,0.5269933,0.006365676,0.7865775,0.3217662,-186.0921,-35.77702,2141.223,0.5269933,0.006365676,0.7865775,0.3217662,-209.9698,-24.68025,2200.583,0.1607736,0.3967414,0.790347,-0.4382919,-50.11922,292.6324,2458.955,0.5266584,-0.3260484,0.4047733,-0.6726678,41.15152,674.1523,2454.133,0.6659512,-0.22542,0.4683303,-0.5351277,45.42189,1020.545,2597.55,0.6665961,-0.2371321,0.4973833,-0.5020239,108.8377,1176.984,2525.376,0.829636,0.1829979,0.5152993,0.112617,-219.5746,300.0216,2448.625,0.4449369,0.5810311,0.4915366,0.4720442,-191.6985,688.4877,2492.18,0.3904153,0.6315916,0.4246262,0.5180352,-152.8016,1044.964,2614.486,0.4484062,0.5854295,0.4223599,0.5270828,-147.4517,1175.306,2507.188,-0.05352116,0.717111,-0.1120656,0.6858051,-175.8517,-297.2816,2348.416,0.6253812,-0.3566875,0.5380511,-0.4383759,-154.4143,-290.343,2192.567,0.6253812,-0.3566875,0.5380511,-0.4383759,-134.9363,-334.5521,2218.543,0.7521899,0.1282435,0.6326757,0.1322327,-94.97047,-358.8002,2333.645,0.4383759,0.5380511,0.3566874,0.6253812,-184.7607,-327.5437,2208.87,0.7521899,0.1282435,0.6326757,0.1322327,-256.0789,-352.0967,2312.776,0.6253812,-0.3566875,0.5380511,-0.4383759
-134.2571,297.9863,2438.246,0.548121,-0.4264707,0.518741,-0.498592,-140.6838,125.4264,2415.814,0.5213315,-0.4529823,0.4957585,-0.5265397,-147.0938,-13.52419,2410.268,0.5364979,-0.4200738,0.5381816,-0.4960531,-162.3004,-222.2646,2377.118,0.5745502,-0.3755623,0.5701354,-0.451432,-127.1859,-190.952,2385.789,0.7804878,-0.6128032,-0.06931309,0.1025026,8.068308,-156.7742,2383.357,0.7291442,-0.3168714,-0.32121,0.5145535,79.30618,100.5204,2421.744,0.5804656,-0.3860454,-0.2335643,0.6778468,72.95461,319.4887,2364.649,0.5804656,-0.3860454,-0.2335643,0.6778468,79.39182,412.7734,2374.125,0.1635845,0.5326049,0.8123143,0.1723881,39.40535,509.9789,2365.462,0.1635845,0.5326049,0.8123143,0.1723881,17.50479,439.863,2368.558,-0.372326,0.3105046,0.8104218,-0.3289024,-192.4462,-184.9139,2381.429,0.5977939,0.7749777,-0.1980762,-0.05308273,-310.0097,-137.3602,2361.592,-0.3554683510198891,-0.6576865111374032,0.5977237675708481,0.2895116615475482,-342.66810191774266,137.62915453073654,2349.3602822920066,0.5702392734684878,0.25308623372927475,-0.7794093955302808,0.05740664987599006,-291.44142813466635,213.71084862504026,2137.109997852732,0.5702392734684878,0.25308623372927475,-0.7794093955302808,0.05740664987599006,-219.9587,162.2883,2087.691,0.3714218,-0.5199381,0.631484,0.4392473,-200.9444,196.5364,2183.67,0.3714218,-0.5199381,0.631484,0.4392473,-200.8169,162.0835,2085.515,-0.475529,-0.03423936,0.8730361,0.102508,-45.80001,293.5573,2446.973,0.5331842,-0.3245904,0.4137847,-0.6626747,40.44111,674.6385,2451.292,0.6653573,-0.2261701,0.4747849,-0.5298358,45.03187,1018.127,2597.727,0.6558845,-0.2482855,0.5005052,-0.5076064,107.7837,1171.735,2520.91,0.8260289,0.1772207,0.525395,0.1011393,-214.0228,301.9801,2430.376,0.4372092,0.5843238,0.4901431,0.4766271,-188.5845,688.2325,2480.501,0.3816139,0.6352111,0.4221298,0.5221917,-151.5113,1040.999,2609.264,0.4388134,0.5906263,0.4178766,0.5329,-147.2187,1173.531,2505.733,-0.0644684,0.7176275,-0.1188443,0.683177,-166.9,-297.7671,2351.919,0.6167904,-0.3581673,0.5093674,-0.481488,-136.8602,-304.174,2198.117,0.6167904,-0.3581673,0.5093674,-0.481488,-120.7452,-346.6694,2228.432,0.7766001,0.1069146,0.6134396,0.09567326,-88.27885,-362.9721,2346.713,0.481488,0.5093674,0.3581673,0.6167904,-169.4384,-338.6504,2215.439,0.7766001,0.1069146,0.6134396,0.09567326,-246.955,-352.0397,2316.264,0.6167904,-0.3581673,0.5093674,-0.481488
-130.3086,299.4124,2421.526,0.5523039,-0.4256422,0.4969519,-0.5165539,-135.4591,127.1767,2405.143,0.5265096,-0.4493237,0.4756478,-0.5428215,-141.243,-11.06749,2403.341,0.5408846,-0.4237783,0.520676,-0.5067073,-153.0753,-219.5943,2376.061,0.5797771,-0.3806588,0.5529832,-0.4617001,-118.7853,-187.8146,2384.76,0.7727166,-0.6245139,-0.0701156,0.08930478,16.33175,-156.5268,2384.318,0.7100435,-0.3521548,-0.3541152,0.4964148,85.0612,99.34472,2425.404,0.5551589,-0.4326392,-0.2494673,0.6651225,82.98112,314.0992,2358.228,0.5551589,-0.4326392,-0.2494673,0.6651225,83.50045,406.8991,2368.993,0.3083279,0.4932895,0.7649704,0.2764411,49.61798,503.8893,2348.132,0.3083279,0.4932895,0.7649704,0.2764411,26.40081,429.7367,2352.474,-0.2298712,0.3355155,0.8900414,-0.2059487,-183.5661,-182.7215,2378.397,0.6062266,0.7644237,-0.2165868,-0.03515495,-298.872,-135.0338,2351.749,-0.31113600925577867,-0.6736818487425198,0.5867974251153711,0.3240616180562257,-326.9531644093778,140.0192435138055,2371.563204459077,0.4953638956502905,0.37859434797203706,-0.7768229857125764,-0.08847021780460694,-275.49230824830204,296.2897186569937,2209.100598271126,0.4953638956502905,0.37859434797203706,-0.7768229857125764,-0.08847021780460694,-227.5026,310.5182,2142.344,-0.3209425,-0.05443208,0.6125314,0.7203044,-146.2959,365.033,2109.91,-0.3209425,-0.05443208,0.6125314,0.7203044,-170.5577,304.3378,2147.532,-0.3833146,-0.3008633,0.8657043,0.1144871,-42.84583,295.5875,2434.241,0.5538484,-0.289073,0.4014588,-0.6697161,42.36185,673.8737,2456.575,0.6733947,-0.2056482,0.4499279,-0.5493754,45.51585,1017.211,2597.631,0.6773752,-0.2227145,0.4978639,-0.4936523,108.546,1174.819,2532.651,0.8313268,0.1936411,0.5054694,0.1260933,-209.1776,302.8616,2410.06,0.4230185,0.5906975,0.4865816,0.4851497,-187.5526,685.1465,2472.715,0.3703307,0.6381518,0.4224492,0.5264543,-154.2567,1033.653,2607.385,0.4137154,0.6034759,0.3799281,0.5659603,-146.4186,1175.802,2519.654,-0.1057789,0.7000583,-0.1545938,0.6890789,-156.0802,-295.3888,2353.1,0.5556853,-0.4347211,0.4797519,-0.521603,-137.1951,-333.6061,2203.14,0.5556853,-0.4347211,0.4797519,-0.521603,-119.1441,-368.9904,2240.168,0.7617579,0.03184154,0.64663,0.02409992,-78.60823,-361.1534,2356.027,0.5216029,0.4797519,0.4347211,0.5556854,-168.3294,-363.0579,2229.273,0.7617579,0.03184154,0.64663,0.02409992,-238.0721,-354.1682,2335.177,0.5556853,-0.4347211,0.4797519,-0.521603
-124.2359,300.9071,2421.243,0.5380108,-0.4410481,0.520345,-0.4952394,-129.9806,128.6311,2402.446,0.5119367,-0.4671229,0.4970699,-0.522148,-135.4474,-9.849951,2399.524,0.5325955,-0.4307591,0.514978,-0.5153508,-148.5367,-219.3838,2378.365,0.5722078,-0.388074,0.5478634,-0.4709804,-113.9882,-187.5021,2386.067,0.7650818,-0.6350393,-0.07164252,0.07900801,21.78733,-158.0634,2387.356,0.6976449,-0.368192,-0.364407,0.4949078,87.46764,99.4723,2426.035,0.5455552,-0.4500499,-0.2565403,0.6587957,87.54668,313.561,2355.463,0.5455552,-0.4500499,-0.2565403,0.6587957,105.8401,405.3358,2354.289,0.1547145,0.5438902,0.8206517,0.08232719,67.98148,501.7601,2337.026,0.1547145,0.5438902,0.8206517,0.08232719,40.10849,437.3018,2348.35,-0.4112909,0.3285531,0.7414451,-0.4161152,-178.8675,-182.2206,2379.685,0.616674,0.7519323,-0.2291159,-0.04262696,-292.7997,-131.4607,2351.761,-0.32824351641222127,-0.6720392067904535,0.5852329610040143,0.31324412177129807,-325.7193310087354,143.5800609181447,2361.9692793337867,0.4336786960749864,0.4767541061682589,-0.7437736200842432,-0.17728257920389123,-286.58371988623344,343.1141872098045,2251.890598769464,0.4336786960749864,0.4767541061682589,-0.7437736200842432,-0.17728257920389123,-261.2965,385.0903,2195.65,-0.3612458,-0.1280485,0.4270733,0.818971,-188.397,457.4594,2185.449,-0.3612458,-0.1280485,0.4270733,0.818971,-196.0111,381.134,2185.037,-0.4026683,-0.3785063,0.7989604,0.2371782,-35.90363,297.2902,2427.396,0.5546968,-0.3057961,0.420368,-0.6496854,40.98036,677.7601,2454.248,0.6673689,-0.221011,0.4704973,-0.5332965,45.27363,1019.779,2600.109,0.6419966,-0.2633377,0.4991225,-0.5190091,108.0283,1168.74,2516.3,0.824268,0.1654669,0.5350322,0.08332787,-203.8891,304.1686,2415.694,0.4148664,0.5901689,0.5161109,0.4617534,-188.021,689.8519,2461.087,0.3434677,0.6589208,0.4248574,0.5170585,-148.8317,1033.702,2607.465,0.3921936,0.6241304,0.3933176,0.5494967,-148.7322,1177.485,2521.503,-0.1094954,0.7239937,-0.1596126,0.6620934,-152.0263,-295.9352,2357.609,0.5620001,-0.4492311,0.4500406,-0.5289714,-127.0031,-340.6357,2210.075,0.5620001,-0.4492311,0.4500406,-0.5289714,-108.776,-373.5274,2249.385,0.7714334,0.0005724314,0.6358812,0.0233548,-72.13889,-358.5316,2366.062,0.5289714,0.4500406,0.4492311,0.562,-157.8701,-370.036,2236.746,0.7714334,0.0005724314,0.6358812,0.0233548,-231.3016,-358.7612,2340.168,0.5620001,-0.4492311,0.4500406,-0.5289714
